%YAML 1.1
%TAG !u! tag:unity3d.com,2011:
--- !u!78 &1
TagManager:
  tags:
  - bubble
  - topBubble
  - topBounce
  - 
  - GunImage
  - 
  Builtin Layer 0: Default
  Builtin Layer 1: TransparentFX
  Builtin Layer 2: Ignore Raycast
  Builtin Layer 3: 
  Builtin Layer 4: Water
  Builtin Layer 5: 
  Builtin Layer 6: 
  Builtin Layer 7: 
  User Layer 8: Background
  User Layer 9: Ground
  User Layer 10: Bubbles
  User Layer 11: Player
  User Layer 12: AllBubleLayer
  User Layer 13: DropBubbleLayer
  User Layer 14: bottomGround
  User Layer 15: ComboSplash
  User Layer 16: 
  User Layer 17: 
  User Layer 18: 
  User Layer 19: 
  User Layer 20: 
  User Layer 21: 
  User Layer 22: 
  User Layer 23: 
  User Layer 24: 
  User Layer 25: 
  User Layer 26: 
  User Layer 27: 
  User Layer 28: 
  User Layer 29: 
  User Layer 30: 
  User Layer 31: 
  m_SortingLayers:
  - name: Background
    userID: 1
    uniqueID: 3033486553
    locked: 0
  - name: Ground
    userID: 2
    uniqueID: 478855191
    locked: 0
  - name: DropBubbleLayer
    userID: 5
    uniqueID: 4055007163
    locked: 0
  - name: AllBubleLayer
    userID: 4
    uniqueID: 1278978201
    locked: 0
  - name: Default
    userID: 0
    uniqueID: 0
    locked: 0
  - name: Bubbles
    userID: 3
    uniqueID: 720553927
    locked: 0
  - name: ComboSplash
    userID: 6
    uniqueID: 4037797259
    locked: 0
